3,7,19,24
3,7,19,24
3,7,19,24
3,7,19,24
3,7,19,24
3,7,19,24
3,7,19,24
17,24,19,31
17,24,19,31
17,24,19,31
17,24,19,31
19,3,8,24
19,3,8,24
19,3,8,24
19,3,8,24
3,17,9,24
3,17,9,24
3,17,9,24
3,17,9,24
19,17,8,24
19,17,8,24
19,17,8,24
19,17,8,24
1,7,5,6
1,7,5,6
1,7,5,6
19,7,8,24
19,7,8,24
19,7,8,24
32,3,20,0
32,3,20,0
1,7,9,6
1,7,9,6
1,14,9,6
1,14,9,6
3,0,20,24
3,0,20,24
19,3,9,24
19,3,9,24
3,7,9,24
3,7,9,24
9,17,20,24
9,17,20,24
3,16,20,26
3,16,20,26
3,0,20,6
23,1,5,6
1,6,5,31
7,24,3,31
17,24,9,31
8,17,20,13
9,17,20,13
19,17,8,13
3,7,20,24
9,7,20,24
19,7,5,24
19,7,9,24
3,17,19,24
3,17,20,24
19,17,9,24
19,14,9,24
1,14,5,24
1,14,20,24
12,0,20,26
9,14,20,26
19,14,20,26
14,6,22,33
1,6,5,33
1,6,9,33
14,24,20,33